…
    ## ── Conflicts ────────────────────────────────────────── tidyverse_conflicts() ──
    ## x dplyr::filter() masks stats::filter()
    ## x dplyr::lag()    masks stats::lag()

``` r
library(dplyr)
```

Exercise 1

``` r
gapminder::gapminder 
```

    ## # A tibble: 1,704 x 6
    ##    country     continent  year lifeExp      pop gdpPercap
    ##    <fct>       <fct>     <int>   <dbl>    <int>     <dbl>
    ##  1 Afghanistan Asia       1952    28.8  8425333      779.
    ##  2 Afghanistan Asia       1957    30.3  9240934      821.
    ##  3 Afghanistan Asia       1962    32.0 10267083      853.
    ##  4 Afghanistan Asia       1967    34.0 11537966      836.
    ##  5 Afghanistan Asia       1972    36.1 13079460      740.
    ##  6 Afghanistan Asia       1977    38.4 14880372      786.
    ##  7 Afghanistan Asia       1982    39.9 12881816      978.
    ##  8 Afghanistan Asia       1987    40.8 13867957      852.
    ##  9 Afghanistan Asia       1992    41.7 16317921      649.
    ## 10 Afghanistan Asia       1997    41.8 22227415      635.
    ## # … with 1,694 more rows
…
``` r
gapminder %>% 
  mutate(diffLifeExp = lifeExp - lag(lifeExp)) %>% 
  filter(diffLifeExp < lifeExp )
```

    ## # A tibble: 1,703 x 7
    ##    country     continent  year lifeExp      pop gdpPercap diffLifeExp
    ##    <fct>       <fct>     <int>   <dbl>    <int>     <dbl>       <dbl>
    ##  1 Afghanistan Asia       1957    30.3  9240934      821.      1.53  
    ##  2 Afghanistan Asia       1962    32.0 10267083      853.      1.66  
    ##  3 Afghanistan Asia       1967    34.0 11537966      836.      2.02  
    ##  4 Afghanistan Asia       1972    36.1 13079460      740.      2.07  
    ##  5 Afghanistan Asia       1977    38.4 14880372      786.      2.35  
    ##  6 Afghanistan Asia       1982    39.9 12881816      978.      1.42  
    ##  7 Afghanistan Asia       1987    40.8 13867957      852.      0.968 
    ##  8 Afghanistan Asia       1992    41.7 16317921      649.      0.852 
    ##  9 Afghanistan Asia       1997    41.8 22227415      635.      0.0890
    ## 10 Afghanistan Asia       2002    42.1 25268405      727.      0.366 
    ## # … with 1,693 more rows

``` r
gapminder %>% 
  group_by(country) %>% 
  summarize(max(gdpPercap))
```

    ## # A tibble: 142 x 2
    ##    country     `max(gdpPercap)`
    ##  * <fct>                  <dbl>
    ##  1 Afghanistan             978.
    ##  2 Albania                5937.
    ##  3 Algeria                6223.
    ##  4 Angola                 5523.
    ##  5 Argentina             12779.
    ##  6 Australia             34435.
    ##  7 Austria               36126.
    ##  8 Bahrain               29796.
    ##  9 Bangladesh             1391.
    ## 10 Belgium               33693.
    ## # … with 132 more rows

``` r
#A better way to write to code to make it look neater
gapminder %>% 
  select(country, gdpPercap) %>% 
  group_by(country) %>% 
  filter(gdpPercap == max(gdpPercap))
```

    ## # A tibble: 142 x 2
    ## # Groups:   country [142]
    ##    country     gdpPercap
    ##    <fct>           <dbl>
    ##  1 Afghanistan      978.
    ##  2 Albania         5937.
    ##  3 Algeria         6223.
    ##  4 Angola          5523.
    ##  5 Argentina      12779.
    ##  6 Australia      34435.
    ##  7 Austria        36126.
    ##  8 Bahrain        29796.
    ##  9 Bangladesh      1391.
    ## 10 Belgium        33693.
    ## # … with 132 more rows
…
