…
For your assignment, do the following.

1.  Inspect the item responses (e.g., with graphs or by summarizing
    distinct values). Is anything unusual?

Get the summaries of each data file

``` r
dictionary %>%
  summarize(dictionary)
```

    ## # A tibble: 36 x 4
    ##    Item   Content                                         Options         Keying
    ##    <chr>  <chr>                                           <chr>            <dbl>
    ##  1 green1 Overall, I am regarded as an environmentally c… 1-5; SD, D, NA…      1
    ##  2 green2 I am not particularly known for protecting the… 1-5; SD, D, NA…     -1
    ##  3 green3 My friends know I enjoy nature.                 1-5; SD, D, NA…      1
    ##  4 green4 I have a reputation for living in harmony with… 1-5; SD, D, NA…      1
    ##  5 green5 Among people I know, I seem to be the one most… 1-5; SD, D, NA…      1
    ##  6 comp1  I feel others' emotions.                        1-5; SD, D, NA…      1
    ##  7 comp2  I inquire about others' well-being.             1-5; SD, D, NA…      1
    ##  8 comp3  I sympathize with others' feelings.             1-5; SD, D, NA…      1
    ##  9 comp4  I take an interest in other people's lives.     1-5; SD, D, NA…      1
    ## 10 comp5  I like to do things for others.                 1-5; SD, D, NA…      1
    ## # … with 26 more rows
…
2.  Compute total scores for the four scales. Recode variables as
    needed.

<!-- end list -->

``` r
green_datar %>% 
  rowwise() %>% 
  mutate(green_tot = sum(c_across(green1:green5), na.rm = TRUE),
         comp_tot = sum(c_across(comp1:comp10r), na.rm = TRUE),
         intel_tot = sum(c_across(intel1:intel10r), na.rm = TRUE),
         open_tot = sum(c_across(open1:open10r), na.rm = TRUE))
```

    ## # A tibble: 373 x 55
    ## # Rowwise: 
    ##    id    green1 green2 green3 green4 green5 comp1 comp2 comp3 comp4 comp5 comp6
    ##    <chr>  <dbl>  <dbl>  <dbl>  <dbl>  <dbl> <dbl> <dbl> <dbl> <dbl> <dbl> <dbl>
    ##  1 9099       4      2      5      4      3     2     5     4     4     2     2
    ##  2 6275       3      5      3      3      1     4     5     4     5     5     1
    ##  3 8116       4      2      5      4      3     4     5     5     4     5     1
    ##  4 8586       4      3      5      4      3     4     5     5     4     5     1
    ##  5 0406       3      2      4      4      4     4     4     4     4     4     2
    ##  6 5645       4      3      4      4      3     5     5     5     4     4     2
    ##  7 3788       1      1      1      1      1     3     3     3     3     3     3
    ##  8 8424       4      3      2      2      2     1     1     1     2     2     4
    ##  9 8450       4      2      3      5      2     4     4     4     4     4     1
    ## 10 0512       4      2      5      5      4     5     2     5     4     2     2
    ## # … with 363 more rows, and 43 more variables: comp7 <dbl>, comp8 <dbl>,
    ## #   comp9 <dbl>, comp10 <dbl>, intel1 <dbl>, intel2 <dbl>, intel3 <dbl>,
    ## #   intel4 <dbl>, intel5 <dbl>, intel6 <dbl>, intel7 <dbl>, intel8 <dbl>,
    ## #   intel9 <dbl>, intel10 <dbl>, open1 <dbl>, open2 <dbl>, open3 <dbl>,
    ## #   open4 <dbl>, open5 <dbl>, open6 <dbl>, open7 <dbl>, open8 <dbl>,
    ## #   open9 <dbl>, open10 <dbl>, student <dbl>, green2r <dbl>, comp6r <dbl>,
    ## #   comp7r <dbl>, comp8r <dbl>, comp9r <dbl>, comp10r <dbl>, intel7r <dbl>,
    ## #   intel8r <dbl>, intel9r <dbl>, intel10r <dbl>, open7r <dbl>, open8r <dbl>,
    ## #   open9r <dbl>, open10r <dbl>, green_tot <dbl>, comp_tot <dbl>,
…
3.  Rescale the variables so that they go from 0-100 instead of the
    original range. Name the recaled variables `*_pomp`.

<!-- end list -->

``` r
green_data_pomp <- green_datar %>% 
  mutate(across(c(green1:open10),
         ~ recode(.x, "1"= 0,"2" = 25, "3" = 50, "4" = 75,"5"= 100),
                .names = "{.col}_pomp"))

print(green_data_pomp)
```

    ## # A tibble: 373 x 86
    ##    id    green1 green2 green3 green4 green5 comp1 comp2 comp3 comp4 comp5 comp6
    ##    <chr>  <dbl>  <dbl>  <dbl>  <dbl>  <dbl> <dbl> <dbl> <dbl> <dbl> <dbl> <dbl>
    ##  1 9099       4      2      5      4      3     2     5     4     4     2     2
    ##  2 6275       3      5      3      3      1     4     5     4     5     5     1
    ##  3 8116       4      2      5      4      3     4     5     5     4     5     1
    ##  4 8586       4      3      5      4      3     4     5     5     4     5     1
    ##  5 0406       3      2      4      4      4     4     4     4     4     4     2
    ##  6 5645       4      3      4      4      3     5     5     5     4     4     2
    ##  7 3788       1      1      1      1      1     3     3     3     3     3     3
    ##  8 8424       4      3      2      2      2     1     1     1     2     2     4
    ##  9 8450       4      2      3      5      2     4     4     4     4     4     1
    ## 10 0512       4      2      5      5      4     5     2     5     4     2     2
    ## # … with 363 more rows, and 74 more variables: comp7 <dbl>, comp8 <dbl>,
    ## #   comp9 <dbl>, comp10 <dbl>, intel1 <dbl>, intel2 <dbl>, intel3 <dbl>,
    ## #   intel4 <dbl>, intel5 <dbl>, intel6 <dbl>, intel7 <dbl>, intel8 <dbl>,
    ## #   intel9 <dbl>, intel10 <dbl>, open1 <dbl>, open2 <dbl>, open3 <dbl>,
    ## #   open4 <dbl>, open5 <dbl>, open6 <dbl>, open7 <dbl>, open8 <dbl>,
    ## #   open9 <dbl>, open10 <dbl>, student <dbl>, green2r <dbl>, comp6r <dbl>,
    ## #   comp7r <dbl>, comp8r <dbl>, comp9r <dbl>, comp10r <dbl>, intel7r <dbl>,
    ## #   intel8r <dbl>, intel9r <dbl>, intel10r <dbl>, open7r <dbl>, open8r <dbl>,
    ## #   open9r <dbl>, open10r <dbl>, green1_pomp <dbl>, green2_pomp <dbl>,
…
