…
Renamed the column so the names for it wouldn’t overlap across different
datasets when I join them together.

``` r
(staff_population %>% 
   rename(staff_april_pop = april_pop))
```

    ## # A tibble: 51 x 5
    ##    name    abbreviation staff_april_pop as_of_date notes                        
    ##    <chr>   <chr>                  <dbl> <chr>      <chr>                        
    ##  1 Alabama AL                      6259 9/30/2019  The staff number is from Sep…
    ##  2 Alaska  AK                        NA <NA>       <NA>                         
    ##  3 Arizona AZ                      8700 5/11/2020  <NA>                         
    ##  4 Arkans… AR                      4045 2/29/2020  <NA>                         
    ##  5 Califo… CA                     46000 4/15/2020  CDCR's pio says that it's ro…
    ##  6 Colora… CO                      6267 12/2/2019  Staff numbers are from a gov…
    ##  7 Connec… CT                      6170 3/1/2020   <NA>                         
    ##  8 Delawa… DE                      2530 5/8/2020   <NA>                         
    ##  9 Florida FL                     22218 4/15/2020  <NA>                         
    ## 10 Georgia GA                      8399 6/30/2019  <NA>                         
    ## # … with 41 more rows
…
