…
``` r
Data_fproj %>% 
  summarise(across(
    mean = ~mean(.x, na.rm = TRUE),
    sd = ~sd(.x, na.rm = TRUE)
              
                   ))
```

    ## # A tibble: 6,031 x 12
    ##    REPORT_ID UND_UNIT_NUMBER CASUALTY_NUMBER `Casualty Type` Sex     AGE
    ##        <dbl>           <dbl>           <dbl> <chr>           <chr> <dbl>
    ##  1        NA               2               1 Pedestrian      Male     41
    ##  2        NA               1               1 Rider           Male     21
    ##  3        NA               1               1 Driver          Fema…    26
    ##  4        NA               1               1 Passenger       Male      2
    ##  5        NA               1               2 Passenger       Male     NA
    ##  6        NA               2               1 Driver          Male     77
    ##  7        NA               1               1 Passenger       Fema…    31
    ##  8        NA               1               1 Rider           Fema…    56
    ##  9        NA               1               1 Rider           Male     46
    ## 10        NA               1               1 Driver          Male     18
    ## # … with 6,021 more rows, and 6 more variables: `Position In Veh` <chr>,
    ## #   `Thrown Out` <chr>, `Injury Extent` <chr>, `Seat Belt` <chr>, Helmet <chr>,
    ## #   Hospital <chr>
…
